cpu_tb.vcd
$date
	Fri Dec 19 21:56:43 2025
$end
$version
	Icarus Verilog
$end
$timescale
	1s
$end
$scope module testbench $end
$var wire 32 ! pc_out [31:0] $end
$var wire 32 " instr_out [31:0] $end
$var parameter 32 # CLK_PERIOD $end
$var reg 1 $ clk $end
$var reg 1 % rst $end
$scope module cpu $end
$var wire 32 & alu_a [31:0] $end
$var wire 1 $ clk $end
$var wire 32 ' instr_out [31:0] $end
$var wire 32 ( pc_out [31:0] $end
$var wire 1 % rst $end
$var wire 1 ) zero $end
$var wire 32 * w_data [31:0] $end
$var wire 5 + w_addr [4:0] $end
$var wire 1 , sign_ext $end
$var wire 5 - shamt [4:0] $end
$var wire 1 . reg_we $end
$var wire 2 / reg_dst [1:0] $end
$var wire 32 0 r_data2 [31:0] $end
$var wire 32 1 r_data1 [31:0] $end
$var wire 5 2 r_addr2 [4:0] $end
$var wire 5 3 r_addr1 [4:0] $end
$var wire 32 4 pc [31:0] $end
$var wire 1 5 mem_we $end
$var wire 2 6 mem_to_reg [1:0] $end
$var wire 32 7 mem_r_data [31:0] $end
$var wire 1 8 jump $end
$var wire 26 9 j_addr [25:0] $end
$var wire 32 : instr [31:0] $end
$var wire 32 ; imm_ext [31:0] $end
$var wire 16 < imm [15:0] $end
$var wire 1 = branch $end
$var wire 1 > alu_src $end
$var wire 32 ? alu_result [31:0] $end
$var wire 4 @ alu_op [3:0] $end
$var wire 32 A alu_b [31:0] $end
$scope module alu_module $end
$var wire 32 B a [31:0] $end
$var wire 5 C shamt [4:0] $end
$var wire 32 D b [31:0] $end
$var wire 4 E alu_op [3:0] $end
$var reg 32 F result [31:0] $end
$var reg 1 ) zero $end
$upscope $end
$scope module alu_src_mux $end
$var wire 32 G b [31:0] $end
$var wire 32 H y [31:0] $end
$var wire 1 > sel $end
$var wire 32 I a [31:0] $end
$var parameter 32 J WIDTH $end
$upscope $end
$scope module ctrl_unit $end
$var wire 6 K opcode [5:0] $end
$var wire 32 L instr [31:0] $end
$var wire 6 M funct [5:0] $end
$var reg 4 N alu_op [3:0] $end
$var reg 1 > alu_src $end
$var reg 1 = branch $end
$var reg 1 8 jump $end
$var reg 2 O mem_to_reg [1:0] $end
$var reg 1 5 mem_we $end
$var reg 2 P reg_dst [1:0] $end
$var reg 1 . reg_we $end
$var reg 1 , sign_ext $end
$upscope $end
$scope module dmem $end
$var wire 32 Q addr [31:0] $end
$var wire 1 $ clk $end
$var wire 32 R r_data [31:0] $end
$var wire 1 % rst $end
$var wire 1 5 we $end
$var wire 32 S w_data [31:0] $end
$var parameter 32 T DMEM_SIZE $end
$var integer 32 U i [31:0] $end
$upscope $end
$scope module imem $end
$var wire 32 V instr [31:0] $end
$var wire 32 W addr [31:0] $end
$var parameter 32 X IMEM_SIZE $end
$var integer 32 Y i [31:0] $end
$upscope $end
$scope module mem_to_reg_mux $end
$var wire 32 Z a [31:0] $end
$var wire 32 [ b [31:0] $end
$var wire 32 \ c [31:0] $end
$var wire 2 ] sel [1:0] $end
$var wire 32 ^ y [31:0] $end
$var parameter 32 _ WIDTH $end
$upscope $end
$scope module pc_module $end
$var wire 1 = branch $end
$var wire 1 $ clk $end
$var wire 32 ` imm_ext [31:0] $end
$var wire 26 a j_addr [25:0] $end
$var wire 1 8 jump $end
$var wire 1 % rst $end
$var wire 1 ) zero $end
$var reg 32 b pc [31:0] $end
$var reg 32 c pc_next [31:0] $end
$upscope $end
$scope module reg_dst_mux $end
$var wire 5 d a [4:0] $end
$var wire 5 e b [4:0] $end
$var wire 5 f c [4:0] $end
$var wire 2 g sel [1:0] $end
$var wire 5 h y [4:0] $end
$var parameter 32 i WIDTH $end
$upscope $end
$scope module reg_file $end
$var wire 1 $ clk $end
$var wire 5 j r_addr1 [4:0] $end
$var wire 5 k r_addr2 [4:0] $end
$var wire 1 % rst $end
$var wire 5 l w_addr [4:0] $end
$var wire 32 m w_data [31:0] $end
$var wire 1 . we $end
$var wire 32 n r_data2 [31:0] $end
$var wire 32 o r_data1 [31:0] $end
$var integer 32 p i [31:0] $end
$upscope $end
$upscope $end
$upscope $end
$enddefinitions $end
$comment Show the parameter values. $end
$dumpall
b101 i
b100000 _
b10000000000 X
b10000000000 T
b100000 J
b1010 #
$end
#0
$dumpvars
b100000 p
bx o
bx n
bx m
bx l
bx k
bx j
bx h
bx g
b11111 f
bx e
bx d
b0 c
bx b
bx a
bx `
bx ^
bx ]
bx \
bx [
bx Z
b10000000000 Y
bx W
bx V
b10000000000 U
bx S
bx R
bx Q
bx P
bx O
bx N
bx M
bx L
bx K
bx I
bx H
bx G
bx F
bx E
bx D
bx C
bx B
bx A
bx @
bx ?
x>
x=
bx <
bx ;
bx :
bx 9
x8
bx 7
bx 6
x5
bx 4
bx 3
bx 2
bx 1
bx 0
bx /
x.
bx -
x,
bx +
bx *
x)
bx (
bx '
bx &
1%
0$
bx "
bx !
$end
#5
b0 *
b0 ^
b0 m
b0 +
b0 h
b0 l
b0 7
b0 R
b0 [
b0 A
b0 D
b0 H
b0 M
1,
b101 @
b101 E
b101 N
b0 6
b0 O
b0 ]
0>
b1 /
b1 P
b1 g
08
0=
05
1.
1)
b0 ?
b0 F
b0 Q
b0 Z
b0 0
b0 I
b0 S
b0 n
b0 &
b0 B
b0 1
b0 o
b0 ;
b0 G
b0 `
b0 K
b0 e
b0 d
b0 -
b0 C
b0 2
b0 k
b0 3
b0 j
b0 9
b0 a
b0 <
b0 "
b0 '
b0 :
b0 L
b0 V
b100 \
b0 !
b0 (
b0 4
b0 W
b0 b
b10000000000 U
b100000 p
1$
#10
0$
#15
b100000 p
b10000000000 U
1$
#20
b0 @
b0 E
b0 N
b1 /
b1 P
b1 g
1.
b100000 M
b1000000100000 ;
b1000000100000 G
b1000000100000 `
b100 -
b100 C
b1000000100000 9
b1000000100000 a
b1000000100000 <
b1000000100000 "
b1000000100000 '
b1000000100000 :
b1000000100000 L
b1000000100000 V
b100 c
0$
0%
#25
b1010 *
b1010 ^
b1010 m
0)
b1010 ?
b1010 F
b1010 Q
b1010 Z
b1010 A
b1010 D
b1010 H
b0 +
b0 h
b0 l
b1010 M
1>
b0 /
b0 P
b0 g
1.
b1010 ;
b1010 G
b1010 `
b1000 K
b10010 e
b0 -
b0 C
b10010000000000001010 9
b10010000000000001010 a
b1010 <
b100000000010010000000000001010 "
b100000000010010000000000001010 '
b100000000010010000000000001010 :
b100000000010010000000000001010 L
b100000000010010000000000001010 V
b1000 c
b1000 \
b100 !
b100 (
b100 4
b100 W
b100 b
1$
#30
0$
#35
b101 *
b101 ^
b101 m
b101 ?
b101 F
b101 Q
b101 Z
1>
1.
b101 A
b101 D
b101 H
b101 M
b101 ;
b101 G
b101 `
b10100 e
b10100000000000000101 9
b10100000000000000101 a
b101 <
b100000000010100000000000000101 "
b100000000010100000000000000101 '
b100000000010100000000000000101 :
b100000000010100000000000000101 L
b100000000010100000000000000101 V
b1100 c
b1100 \
b1000 !
b1000 (
b1000 4
b1000 W
b1000 b
1$
#40
0$
#45
b0 *
b0 ^
b0 m
1)
b0 ?
b0 F
b0 Q
b0 Z
b10100 +
b10100 h
b10100 l
b0 A
b0 D
b0 H
b100000 M
b1 /
b1 P
b1 g
0>
1.
b1100000100000 ;
b1100000100000 G
b1100000100000 `
b0 K
b10010 d
b110 -
b110 C
b10010 2
b10010 k
b1001 3
b1001 j
b1001010100001100000100000 9
b1001010100001100000100000 a
b1100000100000 <
b1001010100001100000100000 "
b1001010100001100000100000 '
b1001010100001100000100000 :
b1001010100001100000100000 L
b1001010100001100000100000 V
b10000 c
b10000 \
b1100 !
b1100 (
b1100 4
b1100 W
b1100 b
1$
#50
0$
#55
b1 @
b1 E
b1 N
b1 /
b1 P
b1 g
1.
b100010 M
b10000000100010 ;
b10000000100010 G
b10000000100010 `
b1000 -
b1000 C
b1001010100010000000100010 9
b1001010100010000000100010 a
b10000000100010 <
b1001010100010000000100010 "
b1001010100010000000100010 '
b1001010100010000000100010 :
b1001010100010000000100010 L
b1001010100010000000100010 V
b10100 c
b10100 \
b10000 !
b10000 (
b10000 4
b10000 W
b10000 b
1$
#60
0$
#65
b10 @
b10 E
b10 N
b1 /
b1 P
b1 g
1.
b100100 M
b10100000100100 ;
b10100000100100 G
b10100000100100 `
b1010 -
b1010 C
b1001010100010100000100100 9
b1001010100010100000100100 a
b10100000100100 <
b1001010100010100000100100 "
b1001010100010100000100100 '
b1001010100010100000100100 :
b1001010100010100000100100 L
b1001010100010100000100100 V
b11000 c
b11000 \
b10100 !
b10100 (
b10100 4
b10100 W
b10100 b
1$
#70
0$
#75
b11 @
b11 E
b11 N
b1 /
b1 P
b1 g
1.
b100101 M
b11000000100101 ;
b11000000100101 G
b11000000100101 `
b1100 -
b1100 C
b1001010100011000000100101 9
b1001010100011000000100101 a
b11000000100101 <
b1001010100011000000100101 "
b1001010100011000000100101 '
b1001010100011000000100101 :
b1001010100011000000100101 L
b1001010100011000000100101 V
b11100 c
b11100 \
b11000 !
b11000 (
b11000 4
b11000 W
b11000 b
1$
#80
0$
#85
b100 @
b100 E
b100 N
b1 /
b1 P
b1 g
1.
b100110 M
b11100000100110 ;
b11100000100110 G
b11100000100110 `
b1110 -
b1110 C
b1001010100011100000100110 9
b1001010100011100000100110 a
b11100000100110 <
b1001010100011100000100110 "
b1001010100011100000100110 '
b1001010100011100000100110 :
b1001010100011100000100110 L
b1001010100011100000100110 V
b100000 c
b100000 \
b11100 !
b11100 (
b11100 4
b11100 W
b11100 b
1$
#90
0$
#95
b101 @
b101 E
b101 N
b1 /
b1 P
b1 g
1.
b0 M
b100000000000000 ;
b100000000000000 G
b100000000000000 `
b0 d
b10000 -
b10000 C
b0 2
b0 k
b0 3
b0 j
b10100100000000000000 9
b10100100000000000000 a
b100000000000000 <
b10100100000000000000 "
b10100100000000000000 '
b10100100000000000000 :
b10100100000000000000 L
b10100100000000000000 V
b100100 c
b100100 \
b100000 !
b100000 (
b100000 4
b100000 W
b100000 b
1$
#100
0$
#105
b110 @
b110 E
b110 N
b1 /
b1 P
b1 g
1.
b10010 +
b10010 h
b10010 l
b10 M
b100001000000010 ;
b100001000000010 G
b100001000000010 `
b10010 e
b10010100001000000010 9
b10010100001000000010 a
b100001000000010 <
b10010100001000000010 "
b10010100001000000010 '
b10010100001000000010 :
b10010100001000000010 L
b10010100001000000010 V
b101000 c
b101000 \
b100100 !
b100100 (
b100100 4
b100100 W
b100100 b
1$
#110
0$
#115
b11111111111111111111111111111011 *
b11111111111111111111111111111011 ^
b11111111111111111111111111111011 m
bx 7
bx R
bx [
0)
b11111111111111111111111111111011 ?
b11111111111111111111111111111011 F
b11111111111111111111111111111011 Q
b11111111111111111111111111111011 Z
b11111111111111111111111111111011 A
b11111111111111111111111111111011 D
b11111111111111111111111111111011 H
b0 +
b0 h
b0 l
b111011 M
1>
b0 @
b0 E
b0 N
b0 /
b0 P
b0 g
1.
b11111111111111111111111111111011 ;
b11111111111111111111111111111011 G
b11111111111111111111111111111011 `
b1000 K
b11001 e
b11111 -
b11111 C
b11001111111111111011 9
b11001111111111111011 a
b1111111111111011 <
b100000000011001111111111111011 "
b100000000011001111111111111011 '
b100000000011001111111111111011 :
b100000000011001111111111111011 L
b100000000011001111111111111011 V
b101100 c
b101100 \
b101000 !
b101000 (
b101000 4
b101000 W
b101000 b
1$
#120
0$
#125
b0 *
b0 ^
b0 m
b11000 +
b11000 h
b11000 l
b0 7
b0 R
b0 [
1)
b0 ?
b0 F
b0 Q
b0 Z
b111 @
b111 E
b111 N
b0 A
b0 D
b0 H
b11 M
b1 /
b1 P
b1 g
0>
1.
b100010000000011 ;
b100010000000011 G
b100010000000011 `
b0 K
b11000 e
b10001 -
b10001 C
b11000100010000000011 9
b11000100010000000011 a
b100010000000011 <
b11000100010000000011 "
b11000100010000000011 '
b11000100010000000011 :
b11000100010000000011 L
b11000100010000000011 V
b110000 c
b110000 \
b101100 !
b101100 (
b101100 4
b101100 W
b101100 b
1$
#130
0$
#135
b1000 @
b1000 E
b1000 N
b1 /
b1 P
b1 g
1.
b10010 +
b10010 h
b10010 l
b101010 M
b100100000101010 ;
b100100000101010 G
b100100000101010 `
b10010 e
b10100 d
b10010 -
b10010 C
b10100 2
b10100 k
b1010 3
b1010 j
b1010010010100100000101010 9
b1010010010100100000101010 a
b100100000101010 <
b1010010010100100000101010 "
b1010010010100100000101010 '
b1010010010100100000101010 :
b1010010010100100000101010 L
b1010010010100100000101010 V
b110100 c
b110100 \
b110000 !
b110000 (
b110000 4
b110000 W
b110000 b
1$
#140
0$
#145
b1001 @
b1001 E
b1001 N
b1 /
b1 P
b1 g
1.
b101011 M
b100101000101011 ;
b100101000101011 G
b100101000101011 `
b1010010010100101000101011 9
b1010010010100101000101011 a
b100101000101011 <
b1010010010100101000101011 "
b1010010010100101000101011 '
b1010010010100101000101011 :
b1010010010100101000101011 L
b1010010010100101000101011 V
b111000 c
b111000 \
b110100 !
b110100 (
b110100 4
b110100 W
b110100 b
1$
#150
0$
#155
b1000 @
b1000 E
b1000 N
b1 /
b1 P
b1 g
1.
b10100 +
b10100 h
b10100 l
b101010 M
b100110000101010 ;
b100110000101010 G
b100110000101010 `
b10100 e
b10010 d
b10011 -
b10011 C
b10010 2
b10010 k
b1001 3
b1001 j
b1001010100100110000101010 9
b1001010100100110000101010 a
b100110000101010 <
b1001010100100110000101010 "
b1001010100100110000101010 '
b1001010100100110000101010 :
b1001010100100110000101010 L
b1001010100100110000101010 V
b111100 c
b111100 \
b111000 !
b111000 (
b111000 4
b111000 W
b111000 b
1$
#160
0$
#165
b0 +
b0 h
b0 l
b0 M
1>
15
b1010 @
b1010 E
b1010 N
b0 /
b0 P
b0 g
0.
b0 ;
b0 G
b0 `
b101011 K
b10010 e
b0 d
b0 -
b0 C
b0 2
b0 k
b0 3
b0 j
b10010000000000000000 9
b10010000000000000000 a
b0 <
b10101100000010010000000000000000 "
b10101100000010010000000000000000 '
b10101100000010010000000000000000 :
b10101100000010010000000000000000 L
b10101100000010010000000000000000 V
b1000000 c
b1000000 \
b111100 !
b111100 (
b111100 4
b111100 W
b111100 b
1$
#170
0$
#175
b1 6
b1 O
b1 ]
1.
b1010 @
b1010 E
b1010 N
1>
05
b100011 K
b11110 e
b11110000000000000000 9
b11110000000000000000 a
b10001100000011110000000000000000 "
b10001100000011110000000000000000 '
b10001100000011110000000000000000 :
b10001100000011110000000000000000 L
b10001100000011110000000000000000 V
b1000100 c
b1000100 \
b1000000 !
b1000000 (
b1000000 4
b1000000 W
b1000000 b
1$
#180
0$
#185
b1 *
b1 ^
b1 m
0)
b1 ?
b1 F
b1 Q
b1 Z
b10000 +
b10000 h
b10000 l
b1 A
b1 D
b1 H
b1 M
b0 @
b0 E
b0 N
b0 6
b0 O
b0 ]
1>
1.
b1 ;
b1 G
b1 `
b1000 K
b10000 e
b10000 d
b10000 2
b10000 k
b1000 3
b1000 j
b1000010000000000000000001 9
b1000010000000000000000001 a
b1 <
b100001000010000000000000000001 "
b100001000010000000000000000001 '
b100001000010000000000000000001 :
b100001000010000000000000000001 L
b100001000010000000000000000001 V
b1001000 c
b1001000 \
b1000100 !
b1000100 (
b1000100 4
b1000100 W
b1000100 b
1$
#190
0$
#195
b11111111111111111111111111111111 *
b11111111111111111111111111111111 ^
b11111111111111111111111111111111 m
bx 7
bx R
bx [
b11111111111111111111111111111111 ?
b11111111111111111111111111111111 F
b11111111111111111111111111111111 Q
b11111111111111111111111111111111 Z
b1000 M
b1 @
b1 E
b1 N
1=
0>
0.
b1000 ;
b1000 G
b1000 `
b100 K
b0 e
b1000000000000000000001000 9
b1000000000000000000001000 a
b1000 <
b1 0
b1 I
b1 S
b1 n
b10001000000000000000000001000 "
b10001000000000000000000001000 '
b10001000000000000000000001000 :
b10001000000000000000000001000 L
b10001000000000000000000001000 V
b1001100 c
b1001100 \
b1001000 !
b1001000 (
b1001000 4
b1001000 W
b1001000 b
1$
#200
0$
#205
b1 *
b1 ^
b1 m
b0 7
b0 R
b0 [
b1 ?
b1 F
b1 Q
b1 Z
b1 M
1>
1.
b0 @
b0 E
b0 N
0=
b1 ;
b1 G
b1 `
b1000 K
b10000 e
b1000010000000000000000001 9
b1000010000000000000000001 a
b1 <
b100001000010000000000000000001 "
b100001000010000000000000000001 '
b100001000010000000000000000001 :
b100001000010000000000000000001 L
b100001000010000000000000000001 V
b1010000 c
b1010000 \
b1001100 !
b1001100 (
b1001100 4
b1001100 W
b1001100 b
1$
#210
0$
#215
b11111111111111111111111111111111 *
b11111111111111111111111111111111 ^
b11111111111111111111111111111111 m
bx 7
bx R
bx [
b11111111111111111111111111111111 ?
b11111111111111111111111111111111 F
b11111111111111111111111111111111 Q
b11111111111111111111111111111111 Z
b100 M
b1 @
b1 E
b1 N
1=
0>
0.
b100 ;
b100 G
b100 `
b100 K
b1000010000000000000000100 9
b1000010000000000000000100 a
b100 <
b10001000010000000000000000100 "
b10001000010000000000000000100 '
b10001000010000000000000000100 :
b10001000010000000000000000100 L
b10001000010000000000000000100 V
b1010100 c
b1010100 \
b1010000 !
b1010000 (
b1010000 4
b1010000 W
b1010000 b
1$
#220
0$
#225
b1 *
b1 ^
b1 m
b0 7
b0 R
b0 [
b1 ?
b1 F
b1 Q
b1 Z
b1 M
1>
1.
b0 @
b0 E
b0 N
0=
b1 ;
b1 G
b1 `
b1000 K
b1000010000000000000000001 9
b1000010000000000000000001 a
b1 <
b100001000010000000000000000001 "
b100001000010000000000000000001 '
b100001000010000000000000000001 :
b100001000010000000000000000001 L
b100001000010000000000000000001 V
b1011000 c
b1011000 \
b1010100 !
b1010100 (
b1010100 4
b1010100 W
b1010100 b
1$
#230
0$
#235
b1011100 c
b1011100 \
b1011000 !
b1011000 (
b1011000 4
b1011000 W
b1011000 b
1$
#240
0$
#245
b0 *
b0 ^
b0 m
1)
b0 ?
b0 F
b0 Q
b0 Z
b0 +
b0 h
b0 l
b0 A
b0 D
b0 H
b0 M
18
0>
0.
b0 0
b0 I
b0 S
b0 n
b0 ;
b0 G
b0 `
b10 K
b0 e
b0 d
b0 2
b0 k
b0 3
b0 j
b0 9
b0 a
b0 <
b1000000000000000000000000000 "
b1000000000000000000000000000 '
b1000000000000000000000000000 :
b1000000000000000000000000000 L
b1000000000000000000000000000 V
b0 c
b1100000 \
b1011100 !
b1011100 (
b1011100 4
b1011100 W
b1011100 b
1$
#250
0$
#255
b100000 M
b0 @
b0 E
b0 N
b1 /
b1 P
b1 g
1.
08
b100 c
b1000000100000 ;
b1000000100000 G
b1000000100000 `
b0 K
b100 -
b100 C
b1000000100000 9
b1000000100000 a
b1000000100000 <
b1000000100000 "
b1000000100000 '
b1000000100000 :
b1000000100000 L
b1000000100000 V
b100 \
b0 !
b0 (
b0 4
b0 W
b0 b
1$
#260
0$
#265
b1010 *
b1010 ^
b1010 m
0)
b1010 ?
b1010 F
b1010 Q
b1010 Z
b1010 A
b1010 D
b1010 H
b0 +
b0 h
b0 l
b1010 M
1>
b0 /
b0 P
b0 g
1.
b1010 ;
b1010 G
b1010 `
b1000 K
b10010 e
b0 -
b0 C
b10010000000000001010 9
b10010000000000001010 a
b1010 <
b100000000010010000000000001010 "
b100000000010010000000000001010 '
b100000000010010000000000001010 :
b100000000010010000000000001010 L
b100000000010010000000000001010 V
b1000 c
b1000 \
b100 !
b100 (
b100 4
b100 W
b100 b
1$
#270
0$
#275
b101 *
b101 ^
b101 m
b101 ?
b101 F
b101 Q
b101 Z
1>
1.
b101 A
b101 D
b101 H
b101 M
b101 ;
b101 G
b101 `
b10100 e
b10100000000000000101 9
b10100000000000000101 a
b101 <
b100000000010100000000000000101 "
b100000000010100000000000000101 '
b100000000010100000000000000101 :
b100000000010100000000000000101 L
b100000000010100000000000000101 V
b1100 c
b1100 \
b1000 !
b1000 (
b1000 4
b1000 W
b1000 b
1$
#280
0$
#285
b0 *
b0 ^
b0 m
1)
b0 ?
b0 F
b0 Q
b0 Z
b10100 +
b10100 h
b10100 l
b0 A
b0 D
b0 H
b100000 M
b1 /
b1 P
b1 g
0>
1.
b1100000100000 ;
b1100000100000 G
b1100000100000 `
b0 K
b10010 d
b110 -
b110 C
b10010 2
b10010 k
b1001 3
b1001 j
b1001010100001100000100000 9
b1001010100001100000100000 a
b1100000100000 <
b1001010100001100000100000 "
b1001010100001100000100000 '
b1001010100001100000100000 :
b1001010100001100000100000 L
b1001010100001100000100000 V
b10000 c
b10000 \
b1100 !
b1100 (
b1100 4
b1100 W
b1100 b
1$
#290
0$
#295
b1 @
b1 E
b1 N
b1 /
b1 P
b1 g
1.
b100010 M
b10000000100010 ;
b10000000100010 G
b10000000100010 `
b1000 -
b1000 C
b1001010100010000000100010 9
b1001010100010000000100010 a
b10000000100010 <
b1001010100010000000100010 "
b1001010100010000000100010 '
b1001010100010000000100010 :
b1001010100010000000100010 L
b1001010100010000000100010 V
b10100 c
b10100 \
b10000 !
b10000 (
b10000 4
b10000 W
b10000 b
1$
#300
0$
#305
b10 @
b10 E
b10 N
b1 /
b1 P
b1 g
1.
b100100 M
b10100000100100 ;
b10100000100100 G
b10100000100100 `
b1010 -
b1010 C
b1001010100010100000100100 9
b1001010100010100000100100 a
b10100000100100 <
b1001010100010100000100100 "
b1001010100010100000100100 '
b1001010100010100000100100 :
b1001010100010100000100100 L
b1001010100010100000100100 V
b11000 c
b11000 \
b10100 !
b10100 (
b10100 4
b10100 W
b10100 b
1$
#310
0$
#315
b11 @
b11 E
b11 N
b1 /
b1 P
b1 g
1.
b100101 M
b11000000100101 ;
b11000000100101 G
b11000000100101 `
b1100 -
b1100 C
b1001010100011000000100101 9
b1001010100011000000100101 a
b11000000100101 <
b1001010100011000000100101 "
b1001010100011000000100101 '
b1001010100011000000100101 :
b1001010100011000000100101 L
b1001010100011000000100101 V
b11100 c
b11100 \
b11000 !
b11000 (
b11000 4
b11000 W
b11000 b
1$
#320
0$
#325
b100 @
b100 E
b100 N
b1 /
b1 P
b1 g
1.
b100110 M
b11100000100110 ;
b11100000100110 G
b11100000100110 `
b1110 -
b1110 C
b1001010100011100000100110 9
b1001010100011100000100110 a
b11100000100110 <
b1001010100011100000100110 "
b1001010100011100000100110 '
b1001010100011100000100110 :
b1001010100011100000100110 L
b1001010100011100000100110 V
b100000 c
b100000 \
b11100 !
b11100 (
b11100 4
b11100 W
b11100 b
1$
#330
0$
#335
b101 @
b101 E
b101 N
b1 /
b1 P
b1 g
1.
b0 M
b100000000000000 ;
b100000000000000 G
b100000000000000 `
b0 d
b10000 -
b10000 C
b0 2
b0 k
b0 3
b0 j
b10100100000000000000 9
b10100100000000000000 a
b100000000000000 <
b10100100000000000000 "
b10100100000000000000 '
b10100100000000000000 :
b10100100000000000000 L
b10100100000000000000 V
b100100 c
b100100 \
b100000 !
b100000 (
b100000 4
b100000 W
b100000 b
1$
#340
0$
#345
b110 @
b110 E
b110 N
b1 /
b1 P
b1 g
1.
b10010 +
b10010 h
b10010 l
b10 M
b100001000000010 ;
b100001000000010 G
b100001000000010 `
b10010 e
b10010100001000000010 9
b10010100001000000010 a
b100001000000010 <
b10010100001000000010 "
b10010100001000000010 '
b10010100001000000010 :
b10010100001000000010 L
b10010100001000000010 V
b101000 c
b101000 \
b100100 !
b100100 (
b100100 4
b100100 W
b100100 b
1$
#350
0$
#355
b11111111111111111111111111111011 *
b11111111111111111111111111111011 ^
b11111111111111111111111111111011 m
bx 7
bx R
bx [
0)
b11111111111111111111111111111011 ?
b11111111111111111111111111111011 F
b11111111111111111111111111111011 Q
b11111111111111111111111111111011 Z
b11111111111111111111111111111011 A
b11111111111111111111111111111011 D
b11111111111111111111111111111011 H
b0 +
b0 h
b0 l
b111011 M
1>
b0 @
b0 E
b0 N
b0 /
b0 P
b0 g
1.
b11111111111111111111111111111011 ;
b11111111111111111111111111111011 G
b11111111111111111111111111111011 `
b1000 K
b11001 e
b11111 -
b11111 C
b11001111111111111011 9
b11001111111111111011 a
b1111111111111011 <
b100000000011001111111111111011 "
b100000000011001111111111111011 '
b100000000011001111111111111011 :
b100000000011001111111111111011 L
b100000000011001111111111111011 V
b101100 c
b101100 \
b101000 !
b101000 (
b101000 4
b101000 W
b101000 b
1$
#360
0$
#365
b0 *
b0 ^
b0 m
b11000 +
b11000 h
b11000 l
b0 7
b0 R
b0 [
1)
b0 ?
b0 F
b0 Q
b0 Z
b111 @
b111 E
b111 N
b0 A
b0 D
b0 H
b11 M
b1 /
b1 P
b1 g
0>
1.
b100010000000011 ;
b100010000000011 G
b100010000000011 `
b0 K
b11000 e
b10001 -
b10001 C
b11000100010000000011 9
b11000100010000000011 a
b100010000000011 <
b11000100010000000011 "
b11000100010000000011 '
b11000100010000000011 :
b11000100010000000011 L
b11000100010000000011 V
b110000 c
b110000 \
b101100 !
b101100 (
b101100 4
b101100 W
b101100 b
1$
#370
0$
#375
b1000 @
b1000 E
b1000 N
b1 /
b1 P
b1 g
1.
b10010 +
b10010 h
b10010 l
b101010 M
b100100000101010 ;
b100100000101010 G
b100100000101010 `
b10010 e
b10100 d
b10010 -
b10010 C
b10100 2
b10100 k
b1010 3
b1010 j
b1010010010100100000101010 9
b1010010010100100000101010 a
b100100000101010 <
b1010010010100100000101010 "
b1010010010100100000101010 '
b1010010010100100000101010 :
b1010010010100100000101010 L
b1010010010100100000101010 V
b110100 c
b110100 \
b110000 !
b110000 (
b110000 4
b110000 W
b110000 b
1$
#380
0$
#385
b1001 @
b1001 E
b1001 N
b1 /
b1 P
b1 g
1.
b101011 M
b100101000101011 ;
b100101000101011 G
b100101000101011 `
b1010010010100101000101011 9
b1010010010100101000101011 a
b100101000101011 <
b1010010010100101000101011 "
b1010010010100101000101011 '
b1010010010100101000101011 :
b1010010010100101000101011 L
b1010010010100101000101011 V
b111000 c
b111000 \
b110100 !
b110100 (
b110100 4
b110100 W
b110100 b
1$
#390
0$
#395
b1000 @
b1000 E
b1000 N
b1 /
b1 P
b1 g
1.
b10100 +
b10100 h
b10100 l
b101010 M
b100110000101010 ;
b100110000101010 G
b100110000101010 `
b10100 e
b10010 d
b10011 -
b10011 C
b10010 2
b10010 k
b1001 3
b1001 j
b1001010100100110000101010 9
b1001010100100110000101010 a
b100110000101010 <
b1001010100100110000101010 "
b1001010100100110000101010 '
b1001010100100110000101010 :
b1001010100100110000101010 L
b1001010100100110000101010 V
b111100 c
b111100 \
b111000 !
b111000 (
b111000 4
b111000 W
b111000 b
1$
#400
0$
#405
b0 +
b0 h
b0 l
b0 M
1>
15
b1010 @
b1010 E
b1010 N
b0 /
b0 P
b0 g
0.
b0 ;
b0 G
b0 `
b101011 K
b10010 e
b0 d
b0 -
b0 C
b0 2
b0 k
b0 3
b0 j
b10010000000000000000 9
b10010000000000000000 a
b0 <
b10101100000010010000000000000000 "
b10101100000010010000000000000000 '
b10101100000010010000000000000000 :
b10101100000010010000000000000000 L
b10101100000010010000000000000000 V
b1000000 c
b1000000 \
b111100 !
b111100 (
b111100 4
b111100 W
b111100 b
1$
#410
0$
#415
b1 6
b1 O
b1 ]
1.
b1010 @
b1010 E
b1010 N
1>
05
b100011 K
b11110 e
b11110000000000000000 9
b11110000000000000000 a
b10001100000011110000000000000000 "
b10001100000011110000000000000000 '
b10001100000011110000000000000000 :
b10001100000011110000000000000000 L
b10001100000011110000000000000000 V
b1000100 c
b1000100 \
b1000000 !
b1000000 (
b1000000 4
b1000000 W
b1000000 b
1$
#420
0$
#425
b1 *
b1 ^
b1 m
0)
b1 ?
b1 F
b1 Q
b1 Z
b10000 +
b10000 h
b10000 l
b1 A
b1 D
b1 H
b1 M
b0 @
b0 E
b0 N
b0 6
b0 O
b0 ]
1>
1.
b1 0
b1 I
b1 S
b1 n
b1 ;
b1 G
b1 `
b1000 K
b10000 e
b10000 d
b10000 2
b10000 k
b1000 3
b1000 j
b1000010000000000000000001 9
b1000010000000000000000001 a
b1 <
b100001000010000000000000000001 "
b100001000010000000000000000001 '
b100001000010000000000000000001 :
b100001000010000000000000000001 L
b100001000010000000000000000001 V
b1001000 c
b1001000 \
b1000100 !
b1000100 (
b1000100 4
b1000100 W
b1000100 b
1$
#430
0$
#435
b11111111111111111111111111111111 *
b11111111111111111111111111111111 ^
b11111111111111111111111111111111 m
bx 7
bx R
bx [
b11111111111111111111111111111111 ?
b11111111111111111111111111111111 F
b11111111111111111111111111111111 Q
b11111111111111111111111111111111 Z
b1000 M
b1 @
b1 E
b1 N
1=
0>
0.
b1000 ;
b1000 G
b1000 `
b100 K
b0 e
b1000000000000000000001000 9
b1000000000000000000001000 a
b1000 <
b10001000000000000000000001000 "
b10001000000000000000000001000 '
b10001000000000000000000001000 :
b10001000000000000000000001000 L
b10001000000000000000000001000 V
b1001100 c
b1001100 \
b1001000 !
b1001000 (
b1001000 4
b1001000 W
b1001000 b
1$
#440
0$
#445
b1 *
b1 ^
b1 m
b0 7
b0 R
b0 [
b1 ?
b1 F
b1 Q
b1 Z
b1 M
1>
1.
b0 @
b0 E
b0 N
0=
b1 ;
b1 G
b1 `
b1000 K
b10000 e
b1000010000000000000000001 9
b1000010000000000000000001 a
b1 <
b100001000010000000000000000001 "
b100001000010000000000000000001 '
b100001000010000000000000000001 :
b100001000010000000000000000001 L
b100001000010000000000000000001 V
b1010000 c
b1010000 \
b1001100 !
b1001100 (
b1001100 4
b1001100 W
b1001100 b
1$
#450
0$
