cpu_tb.vcd
$date
	Fri Dec 19 21:31:26 2025
$end
$version
	Icarus Verilog
$end
$timescale
	1s
$end
$scope module testbench $end
$var wire 32 ! pc_out [31:0] $end
$var wire 32 " instr_out [31:0] $end
$var parameter 32 # CLK_PERIOD $end
$var reg 1 $ clk $end
$var reg 1 % rst $end
$scope module cpu_inst $end
$var wire 1 $ clk $end
$var wire 32 & instr_out [31:0] $end
$var wire 32 ' pc_out [31:0] $end
$var wire 1 % rst $end
$var wire 1 ( zero $end
$var wire 32 ) w_data [31:0] $end
$var wire 5 * w_addr [4:0] $end
$var wire 1 + sign_ext $end
$var wire 5 , shamt [4:0] $end
$var wire 1 - reg_we $end
$var wire 2 . reg_dst [1:0] $end
$var wire 32 / r_data2 [31:0] $end
$var wire 32 0 r_data1 [31:0] $end
$var wire 5 1 r_addr2 [4:0] $end
$var wire 5 2 r_addr1 [4:0] $end
$var wire 32 3 pc [31:0] $end
$var wire 1 4 mem_we $end
$var wire 2 5 mem_to_reg [1:0] $end
$var wire 32 6 mem_r_data [31:0] $end
$var wire 1 7 jump $end
$var wire 26 8 j_addr [25:0] $end
$var wire 32 9 instr [31:0] $end
$var wire 32 : imm_ext [31:0] $end
$var wire 16 ; imm [15:0] $end
$var wire 1 < branch $end
$var wire 1 = alu_src $end
$var wire 32 > alu_result [31:0] $end
$var wire 4 ? alu_op [3:0] $end
$var wire 32 @ alu_b [31:0] $end
$scope module alu_module $end
$var wire 5 A shamt [4:0] $end
$var wire 32 B b [31:0] $end
$var wire 4 C alu_op [3:0] $end
$var wire 32 D a [31:0] $end
$var reg 32 E result [31:0] $end
$var reg 1 ( zero $end
$upscope $end
$scope module alu_src_mux $end
$var wire 32 F b [31:0] $end
$var wire 32 G y [31:0] $end
$var wire 1 = sel $end
$var wire 32 H a [31:0] $end
$var parameter 32 I WIDTH $end
$upscope $end
$scope module ctrl_unit $end
$var wire 6 J opcode [5:0] $end
$var wire 32 K instr [31:0] $end
$var wire 6 L funct [5:0] $end
$var reg 4 M alu_op [3:0] $end
$var reg 1 = alu_src $end
$var reg 1 < branch $end
$var reg 1 7 jump $end
$var reg 2 N mem_to_reg [1:0] $end
$var reg 1 4 mem_we $end
$var reg 2 O reg_dst [1:0] $end
$var reg 1 - reg_we $end
$var reg 1 + sign_ext $end
$upscope $end
$scope module dmem $end
$var wire 32 P addr [31:0] $end
$var wire 1 $ clk $end
$var wire 32 Q r_data [31:0] $end
$var wire 1 % rst $end
$var wire 1 4 we $end
$var wire 32 R w_data [31:0] $end
$var parameter 32 S DMEM_SIZE $end
$var integer 32 T i [31:0] $end
$upscope $end
$scope module imem $end
$var wire 32 U instr [31:0] $end
$var wire 32 V addr [31:0] $end
$var parameter 32 W IMEM_SIZE $end
$var integer 32 X i [31:0] $end
$upscope $end
$scope module mem_to_reg_mux $end
$var wire 32 Y a [31:0] $end
$var wire 32 Z b [31:0] $end
$var wire 32 [ c [31:0] $end
$var wire 2 \ sel [1:0] $end
$var wire 32 ] y [31:0] $end
$var parameter 32 ^ WIDTH $end
$upscope $end
$scope module pc_module $end
$var wire 1 < branch $end
$var wire 1 $ clk $end
$var wire 32 _ imm_ext [31:0] $end
$var wire 26 ` j_addr [25:0] $end
$var wire 1 7 jump $end
$var wire 1 % rst $end
$var wire 1 ( zero $end
$var reg 32 a pc [31:0] $end
$var reg 32 b pc_next [31:0] $end
$upscope $end
$scope module reg_dst_mux $end
$var wire 5 c a [4:0] $end
$var wire 5 d b [4:0] $end
$var wire 5 e c [4:0] $end
$var wire 2 f sel [1:0] $end
$var wire 5 g y [4:0] $end
$var parameter 32 h WIDTH $end
$upscope $end
$scope module reg_file $end
$var wire 1 $ clk $end
$var wire 5 i r_addr1 [4:0] $end
$var wire 5 j r_addr2 [4:0] $end
$var wire 1 % rst $end
$var wire 5 k w_addr [4:0] $end
$var wire 32 l w_data [31:0] $end
$var wire 1 - we $end
$var wire 32 m r_data2 [31:0] $end
$var wire 32 n r_data1 [31:0] $end
$var integer 32 o i [31:0] $end
$upscope $end
$upscope $end
$upscope $end
$enddefinitions $end
$comment Show the parameter values. $end
$dumpall
b101 h
b100000 ^
b10000000000 W
b10000000000 S
b100000 I
b1010 #
$end
#0
$dumpvars
b100000 o
bx n
bx m
bx l
bx k
bx j
bx i
bx g
bx f
b11111 e
bx d
bx c
b0 b
bx a
bx `
bx _
bx ]
bx \
bx [
bx Z
bx Y
b10000000000 X
bx V
bx U
b10000000000 T
bx R
bx Q
bx P
bx O
bx N
bx M
bx L
bx K
bx J
bx H
bx G
bx F
bx E
bx D
bx C
bx B
bx A
bx @
bx ?
bx >
x=
x<
bx ;
bx :
bx 9
bx 8
x7
bx 6
bx 5
x4
bx 3
bx 2
bx 1
bx 0
bx /
bx .
x-
bx ,
x+
bx *
bx )
x(
bx '
bx &
1%
0$
bx "
bx !
$end
#5
b0 )
b0 ]
b0 l
b0 *
b0 g
b0 k
b0 6
b0 Q
b0 Z
b0 @
b0 B
b0 G
b0 L
1+
b101 ?
b101 C
b101 M
b0 5
b0 N
b0 \
0=
b1 .
b1 O
b1 f
07
0<
04
1-
1(
b0 >
b0 E
b0 P
b0 Y
b0 /
b0 H
b0 R
b0 m
b0 0
b0 D
b0 n
b0 :
b0 F
b0 _
b0 J
b0 d
b0 c
b0 ,
b0 A
b0 1
b0 j
b0 2
b0 i
b0 8
b0 `
b0 ;
b0 "
b0 &
b0 9
b0 K
b0 U
b100 [
b0 !
b0 '
b0 3
b0 V
b0 a
b10000000000 T
b100000 o
1$
#10
0$
#15
b100000 o
b10000000000 T
1$
#20
b0 ?
b0 C
b0 M
b1 .
b1 O
b1 f
1-
b100000 L
b1000000100000 :
b1000000100000 F
b1000000100000 _
b100 ,
b100 A
b1000000100000 8
b1000000100000 `
b1000000100000 ;
b1000000100000 "
b1000000100000 &
b1000000100000 9
b1000000100000 K
b1000000100000 U
b100 b
0$
0%
#25
b1010 )
b1010 ]
b1010 l
0(
b1010 >
b1010 E
b1010 P
b1010 Y
b1010 @
b1010 B
b1010 G
b0 *
b0 g
b0 k
b1010 L
1=
b0 .
b0 O
b0 f
1-
b1010 :
b1010 F
b1010 _
b1000 J
b10010 d
b0 ,
b0 A
b10010000000000001010 8
b10010000000000001010 `
b1010 ;
b100000000010010000000000001010 "
b100000000010010000000000001010 &
b100000000010010000000000001010 9
b100000000010010000000000001010 K
b100000000010010000000000001010 U
b1000 b
b1000 [
b100 !
b100 '
b100 3
b100 V
b100 a
1$
#30
0$
#35
b101 )
b101 ]
b101 l
b101 >
b101 E
b101 P
b101 Y
1=
1-
b101 @
b101 B
b101 G
b101 L
b101 :
b101 F
b101 _
b10100 d
b10100000000000000101 8
b10100000000000000101 `
b101 ;
b100000000010100000000000000101 "
b100000000010100000000000000101 &
b100000000010100000000000000101 9
b100000000010100000000000000101 K
b100000000010100000000000000101 U
b1100 b
b1100 [
b1000 !
b1000 '
b1000 3
b1000 V
b1000 a
1$
#40
0$
#45
b0 )
b0 ]
b0 l
1(
b0 >
b0 E
b0 P
b0 Y
b10100 *
b10100 g
b10100 k
b0 @
b0 B
b0 G
b100000 L
b1 .
b1 O
b1 f
0=
1-
b1100000100000 :
b1100000100000 F
b1100000100000 _
b0 J
b10010 c
b110 ,
b110 A
b10010 1
b10010 j
b1001 2
b1001 i
b1001010100001100000100000 8
b1001010100001100000100000 `
b1100000100000 ;
b1001010100001100000100000 "
b1001010100001100000100000 &
b1001010100001100000100000 9
b1001010100001100000100000 K
b1001010100001100000100000 U
b10000 b
b10000 [
b1100 !
b1100 '
b1100 3
b1100 V
b1100 a
1$
#50
0$
#55
b1 ?
b1 C
b1 M
b1 .
b1 O
b1 f
1-
b100010 L
b10000000100010 :
b10000000100010 F
b10000000100010 _
b1000 ,
b1000 A
b1001010100010000000100010 8
b1001010100010000000100010 `
b10000000100010 ;
b1001010100010000000100010 "
b1001010100010000000100010 &
b1001010100010000000100010 9
b1001010100010000000100010 K
b1001010100010000000100010 U
b10100 b
b10100 [
b10000 !
b10000 '
b10000 3
b10000 V
b10000 a
1$
#60
0$
#65
b10 ?
b10 C
b10 M
b1 .
b1 O
b1 f
1-
b100100 L
b10100000100100 :
b10100000100100 F
b10100000100100 _
b1010 ,
b1010 A
b1001010100010100000100100 8
b1001010100010100000100100 `
b10100000100100 ;
b1001010100010100000100100 "
b1001010100010100000100100 &
b1001010100010100000100100 9
b1001010100010100000100100 K
b1001010100010100000100100 U
b11000 b
b11000 [
b10100 !
b10100 '
b10100 3
b10100 V
b10100 a
1$
#70
0$
#75
b11 ?
b11 C
b11 M
b1 .
b1 O
b1 f
1-
b100101 L
b11000000100101 :
b11000000100101 F
b11000000100101 _
b1100 ,
b1100 A
b1001010100011000000100101 8
b1001010100011000000100101 `
b11000000100101 ;
b1001010100011000000100101 "
b1001010100011000000100101 &
b1001010100011000000100101 9
b1001010100011000000100101 K
b1001010100011000000100101 U
b11100 b
b11100 [
b11000 !
b11000 '
b11000 3
b11000 V
b11000 a
1$
#80
0$
#85
b100 ?
b100 C
b100 M
b1 .
b1 O
b1 f
1-
b100110 L
b11100000100110 :
b11100000100110 F
b11100000100110 _
b1110 ,
b1110 A
b1001010100011100000100110 8
b1001010100011100000100110 `
b11100000100110 ;
b1001010100011100000100110 "
b1001010100011100000100110 &
b1001010100011100000100110 9
b1001010100011100000100110 K
b1001010100011100000100110 U
b100000 b
b100000 [
b11100 !
b11100 '
b11100 3
b11100 V
b11100 a
1$
#90
0$
#95
b101 ?
b101 C
b101 M
b1 .
b1 O
b1 f
1-
b0 L
b100000000000000 :
b100000000000000 F
b100000000000000 _
b0 c
b10000 ,
b10000 A
b0 1
b0 j
b0 2
b0 i
b10100100000000000000 8
b10100100000000000000 `
b100000000000000 ;
b10100100000000000000 "
b10100100000000000000 &
b10100100000000000000 9
b10100100000000000000 K
b10100100000000000000 U
b100100 b
b100100 [
b100000 !
b100000 '
b100000 3
b100000 V
b100000 a
1$
#100
0$
#105
b110 ?
b110 C
b110 M
b1 .
b1 O
b1 f
1-
b10010 *
b10010 g
b10010 k
b10 L
b100001000000010 :
b100001000000010 F
b100001000000010 _
b10010 d
b10010100001000000010 8
b10010100001000000010 `
b100001000000010 ;
b10010100001000000010 "
b10010100001000000010 &
b10010100001000000010 9
b10010100001000000010 K
b10010100001000000010 U
b101000 b
b101000 [
b100100 !
b100100 '
b100100 3
b100100 V
b100100 a
1$
#110
0$
#115
b11111111111111111111111111111011 )
b11111111111111111111111111111011 ]
b11111111111111111111111111111011 l
bx 6
bx Q
bx Z
0(
b11111111111111111111111111111011 >
b11111111111111111111111111111011 E
b11111111111111111111111111111011 P
b11111111111111111111111111111011 Y
b11111111111111111111111111111011 @
b11111111111111111111111111111011 B
b11111111111111111111111111111011 G
b0 *
b0 g
b0 k
b111011 L
1=
b0 ?
b0 C
b0 M
b0 .
b0 O
b0 f
1-
b11111111111111111111111111111011 :
b11111111111111111111111111111011 F
b11111111111111111111111111111011 _
b1000 J
b11001 d
b11111 ,
b11111 A
b11001111111111111011 8
b11001111111111111011 `
b1111111111111011 ;
b100000000011001111111111111011 "
b100000000011001111111111111011 &
b100000000011001111111111111011 9
b100000000011001111111111111011 K
b100000000011001111111111111011 U
b101100 b
b101100 [
b101000 !
b101000 '
b101000 3
b101000 V
b101000 a
1$
#120
0$
#125
b0 )
b0 ]
b0 l
b11000 *
b11000 g
b11000 k
b0 6
b0 Q
b0 Z
1(
b0 >
b0 E
b0 P
b0 Y
b111 ?
b111 C
b111 M
b0 @
b0 B
b0 G
b11 L
b1 .
b1 O
b1 f
0=
1-
b100010000000011 :
b100010000000011 F
b100010000000011 _
b0 J
b11000 d
b10001 ,
b10001 A
b11000100010000000011 8
b11000100010000000011 `
b100010000000011 ;
b11000100010000000011 "
b11000100010000000011 &
b11000100010000000011 9
b11000100010000000011 K
b11000100010000000011 U
b110000 b
b110000 [
b101100 !
b101100 '
b101100 3
b101100 V
b101100 a
1$
#130
0$
#135
b1000 ?
b1000 C
b1000 M
b1 .
b1 O
b1 f
1-
b10010 *
b10010 g
b10010 k
b101010 L
b100100000101010 :
b100100000101010 F
b100100000101010 _
b10010 d
b10100 c
b10010 ,
b10010 A
b10100 1
b10100 j
b1010 2
b1010 i
b1010010010100100000101010 8
b1010010010100100000101010 `
b100100000101010 ;
b1010010010100100000101010 "
b1010010010100100000101010 &
b1010010010100100000101010 9
b1010010010100100000101010 K
b1010010010100100000101010 U
b110100 b
b110100 [
b110000 !
b110000 '
b110000 3
b110000 V
b110000 a
1$
#140
0$
#145
b1001 ?
b1001 C
b1001 M
b1 .
b1 O
b1 f
1-
b101011 L
b100101000101011 :
b100101000101011 F
b100101000101011 _
b1010010010100101000101011 8
b1010010010100101000101011 `
b100101000101011 ;
b1010010010100101000101011 "
b1010010010100101000101011 &
b1010010010100101000101011 9
b1010010010100101000101011 K
b1010010010100101000101011 U
b111000 b
b111000 [
b110100 !
b110100 '
b110100 3
b110100 V
b110100 a
1$
#150
0$
#155
b1000 ?
b1000 C
b1000 M
b1 .
b1 O
b1 f
1-
b10100 *
b10100 g
b10100 k
b101010 L
b100110000101010 :
b100110000101010 F
b100110000101010 _
b10100 d
b10010 c
b10011 ,
b10011 A
b10010 1
b10010 j
b1001 2
b1001 i
b1001010100100110000101010 8
b1001010100100110000101010 `
b100110000101010 ;
b1001010100100110000101010 "
b1001010100100110000101010 &
b1001010100100110000101010 9
b1001010100100110000101010 K
b1001010100100110000101010 U
b111100 b
b111100 [
b111000 !
b111000 '
b111000 3
b111000 V
b111000 a
1$
#160
0$
#165
b0 *
b0 g
b0 k
b0 L
1=
14
b1010 ?
b1010 C
b1010 M
b0 .
b0 O
b0 f
0-
b0 :
b0 F
b0 _
b101011 J
b10010 d
b0 c
b0 ,
b0 A
b0 1
b0 j
b0 2
b0 i
b10010000000000000000 8
b10010000000000000000 `
b0 ;
b10101100000010010000000000000000 "
b10101100000010010000000000000000 &
b10101100000010010000000000000000 9
b10101100000010010000000000000000 K
b10101100000010010000000000000000 U
b1000000 b
b1000000 [
b111100 !
b111100 '
b111100 3
b111100 V
b111100 a
1$
#170
0$
#175
b1 5
b1 N
b1 \
1-
b1010 ?
b1010 C
b1010 M
1=
04
b100011 J
b11110 d
b11110000000000000000 8
b11110000000000000000 `
b10001100000011110000000000000000 "
b10001100000011110000000000000000 &
b10001100000011110000000000000000 9
b10001100000011110000000000000000 K
b10001100000011110000000000000000 U
b1000100 b
b1000100 [
b1000000 !
b1000000 '
b1000000 3
b1000000 V
b1000000 a
1$
#180
0$
#185
b1 )
b1 ]
b1 l
0(
b1 >
b1 E
b1 P
b1 Y
b10000 *
b10000 g
b10000 k
b1 @
b1 B
b1 G
b1 L
b0 ?
b0 C
b0 M
b0 5
b0 N
b0 \
1=
1-
b1 :
b1 F
b1 _
b1000 J
b10000 d
b10000 c
b10000 1
b10000 j
b1000 2
b1000 i
b1000010000000000000000001 8
b1000010000000000000000001 `
b1 ;
b100001000010000000000000000001 "
b100001000010000000000000000001 &
b100001000010000000000000000001 9
b100001000010000000000000000001 K
b100001000010000000000000000001 U
b1001000 b
b1001000 [
b1000100 !
b1000100 '
b1000100 3
b1000100 V
b1000100 a
1$
#190
0$
#195
b11111111111111111111111111111111 )
b11111111111111111111111111111111 ]
b11111111111111111111111111111111 l
bx 6
bx Q
bx Z
b11111111111111111111111111111111 >
b11111111111111111111111111111111 E
b11111111111111111111111111111111 P
b11111111111111111111111111111111 Y
b1000 L
b1 ?
b1 C
b1 M
1<
0=
0-
b1000 :
b1000 F
b1000 _
b100 J
b0 d
b1000000000000000000001000 8
b1000000000000000000001000 `
b1000 ;
b1 /
b1 H
b1 R
b1 m
b10001000000000000000000001000 "
b10001000000000000000000001000 &
b10001000000000000000000001000 9
b10001000000000000000000001000 K
b10001000000000000000000001000 U
b1001100 b
b1001100 [
b1001000 !
b1001000 '
b1001000 3
b1001000 V
b1001000 a
1$
#200
0$
#205
b1 )
b1 ]
b1 l
b0 6
b0 Q
b0 Z
b1 >
b1 E
b1 P
b1 Y
b1 L
1=
1-
b0 ?
b0 C
b0 M
0<
b1 :
b1 F
b1 _
b1000 J
b10000 d
b1000010000000000000000001 8
b1000010000000000000000001 `
b1 ;
b100001000010000000000000000001 "
b100001000010000000000000000001 &
b100001000010000000000000000001 9
b100001000010000000000000000001 K
b100001000010000000000000000001 U
b1010000 b
b1010000 [
b1001100 !
b1001100 '
b1001100 3
b1001100 V
b1001100 a
1$
#210
0$
#215
b11111111111111111111111111111111 )
b11111111111111111111111111111111 ]
b11111111111111111111111111111111 l
bx 6
bx Q
bx Z
b11111111111111111111111111111111 >
b11111111111111111111111111111111 E
b11111111111111111111111111111111 P
b11111111111111111111111111111111 Y
b100 L
b1 ?
b1 C
b1 M
1<
0=
0-
b100 :
b100 F
b100 _
b100 J
b1000010000000000000000100 8
b1000010000000000000000100 `
b100 ;
b10001000010000000000000000100 "
b10001000010000000000000000100 &
b10001000010000000000000000100 9
b10001000010000000000000000100 K
b10001000010000000000000000100 U
b1010100 b
b1010100 [
b1010000 !
b1010000 '
b1010000 3
b1010000 V
b1010000 a
1$
#220
0$
#225
b1 )
b1 ]
b1 l
b0 6
b0 Q
b0 Z
b1 >
b1 E
b1 P
b1 Y
b1 L
1=
1-
b0 ?
b0 C
b0 M
0<
b1 :
b1 F
b1 _
b1000 J
b1000010000000000000000001 8
b1000010000000000000000001 `
b1 ;
b100001000010000000000000000001 "
b100001000010000000000000000001 &
b100001000010000000000000000001 9
b100001000010000000000000000001 K
b100001000010000000000000000001 U
b1011000 b
b1011000 [
b1010100 !
b1010100 '
b1010100 3
b1010100 V
b1010100 a
1$
#230
0$
#235
b1011100 b
b1011100 [
b1011000 !
b1011000 '
b1011000 3
b1011000 V
b1011000 a
1$
#240
0$
#245
b0 )
b0 ]
b0 l
1(
b0 >
b0 E
b0 P
b0 Y
b0 *
b0 g
b0 k
b0 @
b0 B
b0 G
b0 L
17
0=
0-
b0 /
b0 H
b0 R
b0 m
b0 :
b0 F
b0 _
b10 J
b0 d
b0 c
b0 1
b0 j
b0 2
b0 i
b0 8
b0 `
b0 ;
b1000000000000000000000000000 "
b1000000000000000000000000000 &
b1000000000000000000000000000 9
b1000000000000000000000000000 K
b1000000000000000000000000000 U
b0 b
b1100000 [
b1011100 !
b1011100 '
b1011100 3
b1011100 V
b1011100 a
1$
#250
0$
#255
b100000 L
b0 ?
b0 C
b0 M
b1 .
b1 O
b1 f
1-
07
b100 b
b1000000100000 :
b1000000100000 F
b1000000100000 _
b0 J
b100 ,
b100 A
b1000000100000 8
b1000000100000 `
b1000000100000 ;
b1000000100000 "
b1000000100000 &
b1000000100000 9
b1000000100000 K
b1000000100000 U
b100 [
b0 !
b0 '
b0 3
b0 V
b0 a
1$
#260
0$
#265
b1010 )
b1010 ]
b1010 l
0(
b1010 >
b1010 E
b1010 P
b1010 Y
b1010 @
b1010 B
b1010 G
b0 *
b0 g
b0 k
b1010 L
1=
b0 .
b0 O
b0 f
1-
b1010 :
b1010 F
b1010 _
b1000 J
b10010 d
b0 ,
b0 A
b10010000000000001010 8
b10010000000000001010 `
b1010 ;
b100000000010010000000000001010 "
b100000000010010000000000001010 &
b100000000010010000000000001010 9
b100000000010010000000000001010 K
b100000000010010000000000001010 U
b1000 b
b1000 [
b100 !
b100 '
b100 3
b100 V
b100 a
1$
#270
0$
#275
b101 )
b101 ]
b101 l
b101 >
b101 E
b101 P
b101 Y
1=
1-
b101 @
b101 B
b101 G
b101 L
b101 :
b101 F
b101 _
b10100 d
b10100000000000000101 8
b10100000000000000101 `
b101 ;
b100000000010100000000000000101 "
b100000000010100000000000000101 &
b100000000010100000000000000101 9
b100000000010100000000000000101 K
b100000000010100000000000000101 U
b1100 b
b1100 [
b1000 !
b1000 '
b1000 3
b1000 V
b1000 a
1$
#280
0$
#285
b0 )
b0 ]
b0 l
1(
b0 >
b0 E
b0 P
b0 Y
b10100 *
b10100 g
b10100 k
b0 @
b0 B
b0 G
b100000 L
b1 .
b1 O
b1 f
0=
1-
b1100000100000 :
b1100000100000 F
b1100000100000 _
b0 J
b10010 c
b110 ,
b110 A
b10010 1
b10010 j
b1001 2
b1001 i
b1001010100001100000100000 8
b1001010100001100000100000 `
b1100000100000 ;
b1001010100001100000100000 "
b1001010100001100000100000 &
b1001010100001100000100000 9
b1001010100001100000100000 K
b1001010100001100000100000 U
b10000 b
b10000 [
b1100 !
b1100 '
b1100 3
b1100 V
b1100 a
1$
#290
0$
#295
b1 ?
b1 C
b1 M
b1 .
b1 O
b1 f
1-
b100010 L
b10000000100010 :
b10000000100010 F
b10000000100010 _
b1000 ,
b1000 A
b1001010100010000000100010 8
b1001010100010000000100010 `
b10000000100010 ;
b1001010100010000000100010 "
b1001010100010000000100010 &
b1001010100010000000100010 9
b1001010100010000000100010 K
b1001010100010000000100010 U
b10100 b
b10100 [
b10000 !
b10000 '
b10000 3
b10000 V
b10000 a
1$
#300
0$
#305
b10 ?
b10 C
b10 M
b1 .
b1 O
b1 f
1-
b100100 L
b10100000100100 :
b10100000100100 F
b10100000100100 _
b1010 ,
b1010 A
b1001010100010100000100100 8
b1001010100010100000100100 `
b10100000100100 ;
b1001010100010100000100100 "
b1001010100010100000100100 &
b1001010100010100000100100 9
b1001010100010100000100100 K
b1001010100010100000100100 U
b11000 b
b11000 [
b10100 !
b10100 '
b10100 3
b10100 V
b10100 a
1$
#310
0$
#315
b11 ?
b11 C
b11 M
b1 .
b1 O
b1 f
1-
b100101 L
b11000000100101 :
b11000000100101 F
b11000000100101 _
b1100 ,
b1100 A
b1001010100011000000100101 8
b1001010100011000000100101 `
b11000000100101 ;
b1001010100011000000100101 "
b1001010100011000000100101 &
b1001010100011000000100101 9
b1001010100011000000100101 K
b1001010100011000000100101 U
b11100 b
b11100 [
b11000 !
b11000 '
b11000 3
b11000 V
b11000 a
1$
#320
0$
#325
b100 ?
b100 C
b100 M
b1 .
b1 O
b1 f
1-
b100110 L
b11100000100110 :
b11100000100110 F
b11100000100110 _
b1110 ,
b1110 A
b1001010100011100000100110 8
b1001010100011100000100110 `
b11100000100110 ;
b1001010100011100000100110 "
b1001010100011100000100110 &
b1001010100011100000100110 9
b1001010100011100000100110 K
b1001010100011100000100110 U
b100000 b
b100000 [
b11100 !
b11100 '
b11100 3
b11100 V
b11100 a
1$
#330
0$
#335
b101 ?
b101 C
b101 M
b1 .
b1 O
b1 f
1-
b0 L
b100000000000000 :
b100000000000000 F
b100000000000000 _
b0 c
b10000 ,
b10000 A
b0 1
b0 j
b0 2
b0 i
b10100100000000000000 8
b10100100000000000000 `
b100000000000000 ;
b10100100000000000000 "
b10100100000000000000 &
b10100100000000000000 9
b10100100000000000000 K
b10100100000000000000 U
b100100 b
b100100 [
b100000 !
b100000 '
b100000 3
b100000 V
b100000 a
1$
#340
0$
#345
b110 ?
b110 C
b110 M
b1 .
b1 O
b1 f
1-
b10010 *
b10010 g
b10010 k
b10 L
b100001000000010 :
b100001000000010 F
b100001000000010 _
b10010 d
b10010100001000000010 8
b10010100001000000010 `
b100001000000010 ;
b10010100001000000010 "
b10010100001000000010 &
b10010100001000000010 9
b10010100001000000010 K
b10010100001000000010 U
b101000 b
b101000 [
b100100 !
b100100 '
b100100 3
b100100 V
b100100 a
1$
#350
0$
#355
b11111111111111111111111111111011 )
b11111111111111111111111111111011 ]
b11111111111111111111111111111011 l
bx 6
bx Q
bx Z
0(
b11111111111111111111111111111011 >
b11111111111111111111111111111011 E
b11111111111111111111111111111011 P
b11111111111111111111111111111011 Y
b11111111111111111111111111111011 @
b11111111111111111111111111111011 B
b11111111111111111111111111111011 G
b0 *
b0 g
b0 k
b111011 L
1=
b0 ?
b0 C
b0 M
b0 .
b0 O
b0 f
1-
b11111111111111111111111111111011 :
b11111111111111111111111111111011 F
b11111111111111111111111111111011 _
b1000 J
b11001 d
b11111 ,
b11111 A
b11001111111111111011 8
b11001111111111111011 `
b1111111111111011 ;
b100000000011001111111111111011 "
b100000000011001111111111111011 &
b100000000011001111111111111011 9
b100000000011001111111111111011 K
b100000000011001111111111111011 U
b101100 b
b101100 [
b101000 !
b101000 '
b101000 3
b101000 V
b101000 a
1$
#360
0$
#365
b0 )
b0 ]
b0 l
b11000 *
b11000 g
b11000 k
b0 6
b0 Q
b0 Z
1(
b0 >
b0 E
b0 P
b0 Y
b111 ?
b111 C
b111 M
b0 @
b0 B
b0 G
b11 L
b1 .
b1 O
b1 f
0=
1-
b100010000000011 :
b100010000000011 F
b100010000000011 _
b0 J
b11000 d
b10001 ,
b10001 A
b11000100010000000011 8
b11000100010000000011 `
b100010000000011 ;
b11000100010000000011 "
b11000100010000000011 &
b11000100010000000011 9
b11000100010000000011 K
b11000100010000000011 U
b110000 b
b110000 [
b101100 !
b101100 '
b101100 3
b101100 V
b101100 a
1$
#370
0$
#375
b1000 ?
b1000 C
b1000 M
b1 .
b1 O
b1 f
1-
b10010 *
b10010 g
b10010 k
b101010 L
b100100000101010 :
b100100000101010 F
b100100000101010 _
b10010 d
b10100 c
b10010 ,
b10010 A
b10100 1
b10100 j
b1010 2
b1010 i
b1010010010100100000101010 8
b1010010010100100000101010 `
b100100000101010 ;
b1010010010100100000101010 "
b1010010010100100000101010 &
b1010010010100100000101010 9
b1010010010100100000101010 K
b1010010010100100000101010 U
b110100 b
b110100 [
b110000 !
b110000 '
b110000 3
b110000 V
b110000 a
1$
#380
0$
#385
b1001 ?
b1001 C
b1001 M
b1 .
b1 O
b1 f
1-
b101011 L
b100101000101011 :
b100101000101011 F
b100101000101011 _
b1010010010100101000101011 8
b1010010010100101000101011 `
b100101000101011 ;
b1010010010100101000101011 "
b1010010010100101000101011 &
b1010010010100101000101011 9
b1010010010100101000101011 K
b1010010010100101000101011 U
b111000 b
b111000 [
b110100 !
b110100 '
b110100 3
b110100 V
b110100 a
1$
#390
0$
#395
b1000 ?
b1000 C
b1000 M
b1 .
b1 O
b1 f
1-
b10100 *
b10100 g
b10100 k
b101010 L
b100110000101010 :
b100110000101010 F
b100110000101010 _
b10100 d
b10010 c
b10011 ,
b10011 A
b10010 1
b10010 j
b1001 2
b1001 i
b1001010100100110000101010 8
b1001010100100110000101010 `
b100110000101010 ;
b1001010100100110000101010 "
b1001010100100110000101010 &
b1001010100100110000101010 9
b1001010100100110000101010 K
b1001010100100110000101010 U
b111100 b
b111100 [
b111000 !
b111000 '
b111000 3
b111000 V
b111000 a
1$
#400
0$
#405
b0 *
b0 g
b0 k
b0 L
1=
14
b1010 ?
b1010 C
b1010 M
b0 .
b0 O
b0 f
0-
b0 :
b0 F
b0 _
b101011 J
b10010 d
b0 c
b0 ,
b0 A
b0 1
b0 j
b0 2
b0 i
b10010000000000000000 8
b10010000000000000000 `
b0 ;
b10101100000010010000000000000000 "
b10101100000010010000000000000000 &
b10101100000010010000000000000000 9
b10101100000010010000000000000000 K
b10101100000010010000000000000000 U
b1000000 b
b1000000 [
b111100 !
b111100 '
b111100 3
b111100 V
b111100 a
1$
#410
0$
#415
b1 5
b1 N
b1 \
1-
b1010 ?
b1010 C
b1010 M
1=
04
b100011 J
b11110 d
b11110000000000000000 8
b11110000000000000000 `
b10001100000011110000000000000000 "
b10001100000011110000000000000000 &
b10001100000011110000000000000000 9
b10001100000011110000000000000000 K
b10001100000011110000000000000000 U
b1000100 b
b1000100 [
b1000000 !
b1000000 '
b1000000 3
b1000000 V
b1000000 a
1$
#420
0$
#425
b1 )
b1 ]
b1 l
0(
b1 >
b1 E
b1 P
b1 Y
b10000 *
b10000 g
b10000 k
b1 @
b1 B
b1 G
b1 L
b0 ?
b0 C
b0 M
b0 5
b0 N
b0 \
1=
1-
b1 /
b1 H
b1 R
b1 m
b1 :
b1 F
b1 _
b1000 J
b10000 d
b10000 c
b10000 1
b10000 j
b1000 2
b1000 i
b1000010000000000000000001 8
b1000010000000000000000001 `
b1 ;
b100001000010000000000000000001 "
b100001000010000000000000000001 &
b100001000010000000000000000001 9
b100001000010000000000000000001 K
b100001000010000000000000000001 U
b1001000 b
b1001000 [
b1000100 !
b1000100 '
b1000100 3
b1000100 V
b1000100 a
1$
#430
0$
#435
b11111111111111111111111111111111 )
b11111111111111111111111111111111 ]
b11111111111111111111111111111111 l
bx 6
bx Q
bx Z
b11111111111111111111111111111111 >
b11111111111111111111111111111111 E
b11111111111111111111111111111111 P
b11111111111111111111111111111111 Y
b1000 L
b1 ?
b1 C
b1 M
1<
0=
0-
b1000 :
b1000 F
b1000 _
b100 J
b0 d
b1000000000000000000001000 8
b1000000000000000000001000 `
b1000 ;
b10001000000000000000000001000 "
b10001000000000000000000001000 &
b10001000000000000000000001000 9
b10001000000000000000000001000 K
b10001000000000000000000001000 U
b1001100 b
b1001100 [
b1001000 !
b1001000 '
b1001000 3
b1001000 V
b1001000 a
1$
#440
0$
#445
b1 )
b1 ]
b1 l
b0 6
b0 Q
b0 Z
b1 >
b1 E
b1 P
b1 Y
b1 L
1=
1-
b0 ?
b0 C
b0 M
0<
b1 :
b1 F
b1 _
b1000 J
b10000 d
b1000010000000000000000001 8
b1000010000000000000000001 `
b1 ;
b100001000010000000000000000001 "
b100001000010000000000000000001 &
b100001000010000000000000000001 9
b100001000010000000000000000001 K
b100001000010000000000000000001 U
b1010000 b
b1010000 [
b1001100 !
b1001100 '
b1001100 3
b1001100 V
b1001100 a
1$
#450
0$
